<?xml version="1.0" encoding="utf-8"?>
<!-- Generator: Adobe Illustrator 25.3.1, SVG Export Plug-In . SVG Version: 6.00 Build 0)  -->
<svg version="1.1" id="Layer_1" xmlns="http://www.w3.org/2000/svg" xmlns:xlink="http://www.w3.org/1999/xlink" x="0px" y="0px"
	 viewBox="0 0 32.8 30.24" style="enable-background:new 0 0 32.8 30.24;" xml:space="preserve">
<style type="text/css">
	.st0{fill:#CBCCCD;}
	.st1{fill:#F58443;}
	.st2{opacity:0.8;fill:#F58443;}
	.st3{fill:#9E9E9E;}
	.st4{fill:#D65A24;}
	.st5{fill:#203E6D;}
	.st6{opacity:0.73;fill:#203E6D;}
	.st7{fill:#0E2A51;}
	.st8{fill:none;stroke:#FFFFFF;stroke-linecap:round;stroke-linejoin:round;stroke-miterlimit:10;}
	.st9{fill:#104E99;}
	.st10{opacity:0.73;fill:#104E99;}
	.st11{fill:#00A952;}
	.st12{opacity:0.74;fill:#00A952;}
	.st13{fill:#006837;}
	.st14{fill:#7B7B7B;}
	.st15{fill:#474849;}
	.st16{fill:#00AEEF;}
	.st17{fill:none;stroke:#FFFFFF;stroke-miterlimit:10;}
</style>
<g>
	<polygon class="st8" points="28.23,8.91 28.23,25.92 5.13,25.92 5.13,8.91 28.23,8.91 	"/>
	<path class="st8" d="M12.19,6.9V6.36c0-1.35,1.16-2.45,2.59-2.45h3.79c1.43,0,2.59,1.1,2.59,2.45V6.9"/>
	<line class="st8" x1="18.17" y1="14.94" x2="28.23" y2="14.94"/>
	<line class="st8" x1="5.13" y1="14.94" x2="15.15" y2="14.94"/>
	<path class="st8" d="M18.17,16.42c0,0.27-0.22,0.48-0.48,0.48h-2.06c-0.27,0-0.48-0.22-0.48-0.48v-2.06c0-0.27,0.22-0.48,0.48-0.48
		h2.06c0.27,0,0.48,0.22,0.48,0.48V16.42z"/>
</g>
</svg>
