<svg width="80" height="73" viewBox="0 0 80 73" fill="none" xmlns="http://www.w3.org/2000/svg">
<rect width="80" height="73" fill="#E5E5E5"/>
<g clip-path="url(#clip0)">
<rect width="1920" height="4766" transform="translate(-316 -3483)" fill="white"/>
<rect x="-316" y="-154" width="1920" height="952" fill="#E6E7E9"/>
<path d="M403 -11H21V240H403V-11Z" fill="white"/>
<path d="M402.994 -11.1309H20.8682V92.0211H402.994V-11.1309Z" fill="#203E6D"/>
<path d="M79.0318 0.883789H0.905762V72.0568H79.0318V0.883789Z" fill="#F9F9F9"/>
<path d="M77.9068 2.00879H2.03076V70.9318H77.9068V2.00879Z" stroke="#203E6D" stroke-width="2.25" stroke-miterlimit="10"/>
<path d="M60.4232 25.8252V55.9622H19.5151V25.8252H60.4232V25.8252Z" stroke="#203E6D" stroke-width="1.8" stroke-linecap="round" stroke-linejoin="round"/>
<path d="M32.0059 22.2794V21.3224C32.0404 20.1365 32.5443 19.0129 33.4068 18.1983C34.2693 17.3838 35.42 16.945 36.6059 16.9784H43.3189C44.5048 16.9447 45.6556 17.3835 46.5182 18.1981C47.3808 19.0127 47.8846 20.1364 47.9189 21.3224V22.2794" stroke="#203E6D" stroke-width="1.8" stroke-linecap="round" stroke-linejoin="round"/>
<path d="M42.5981 36.5098H60.4231" stroke="#203E6D" stroke-width="1.8" stroke-linecap="round" stroke-linejoin="round"/>
<path d="M19.5151 36.5098H37.2531" stroke="#203E6D" stroke-width="1.8" stroke-linecap="round" stroke-linejoin="round"/>
<path d="M41.7449 34.6479H38.1059C37.6348 34.6479 37.2529 35.0299 37.2529 35.5009V39.1399C37.2529 39.611 37.6348 39.9929 38.1059 39.9929H41.7449C42.216 39.9929 42.5979 39.611 42.5979 39.1399V35.5009C42.5979 35.0299 42.216 34.6479 41.7449 34.6479Z" stroke="#203E6D" stroke-width="1.8" stroke-linecap="round" stroke-linejoin="round"/>
<path d="M20.8708 92.0208V72.0557H0.905762L20.8708 92.0208Z" fill="#9BA8BD"/>
</g>
<defs>
<clipPath id="clip0">
<rect width="1920" height="4766" fill="white" transform="translate(-316 -3483)"/>
</clipPath>
</defs>
</svg>
